{
    "success":true,
    "data":{
    "ID": 2,
    "DisplayName": "Tosin.Yadeka",
    "Email": "tosinyadeka@outlook.com",
    "PhoneNumber": null,
    "FirstName": "Tosin",
    "SurName": "Yadeka",
    "UserKey": "fd3fd0be-e717-4fd3-898b-6819ee382578",
    "CompanyID": 2,
    "Company": {
        "ID": 2,
        "Name": "VilleCrest",
        "Address": null,
        "CompanyKey": "e4322a15-5e5f-4cda-b49c-b34683ede040",
        "InvoiceType": "Products",
        "Sector": "Technology",
        "Currency": null,
        "DateAdded": "2018-06-23T04:24:15.705892",
        "LastEdit": null,
        "LastEditorId": null
    },
    "PassportUrl": null,
    "AccountTypeID": 2,
    "DateAdded": "2018-06-23T04:24:15.695935",
    "LastEdit": null,
    "IdentityId": "b6c0a8eb-94b5-44f7-a44c-0d1764fbb053",
    "LastLoginDate": "2018-09-09T22:24:23.4622372+00:00",
    "AccountType": "Merchant",
    "PasswordHash": null
}
}